<?xml version="1.0" encoding="UTF-8" standalone="no"?>
<!-- Created with Inkscape (http://www.inkscape.org/) -->

<svg
   xmlns:osb="http://www.openswatchbook.org/uri/2009/osb"
   xmlns:dc="http://purl.org/dc/elements/1.1/"
   xmlns:cc="http://creativecommons.org/ns#"
   xmlns:rdf="http://www.w3.org/1999/02/22-rdf-syntax-ns#"
   xmlns:svg="http://www.w3.org/2000/svg"
   xmlns="http://www.w3.org/2000/svg"
   xmlns:sodipodi="http://sodipodi.sourceforge.net/DTD/sodipodi-0.dtd"
   xmlns:inkscape="http://www.inkscape.org/namespaces/inkscape"
   version="1.1"
   id="svg10"
   width="1920"
   height="1910"
   viewBox="0 0 1920 1910"
   sodipodi:docname="lotcom_dane_osobowe.svg"
   inkscape:version="0.92.4 (5da689c313, 2019-01-14)">
  <metadata
     id="metadata16">
    <rdf:RDF>
      <cc:Work
         rdf:about="">
        <dc:format>image/svg+xml</dc:format>
        <dc:type
           rdf:resource="http://purl.org/dc/dcmitype/StillImage" />
        <dc:title></dc:title>
      </cc:Work>
    </rdf:RDF>
  </metadata>
  <defs
     id="defs14">
    <linearGradient
       id="linearGradient4599"
       osb:paint="solid">
      <stop
         style="stop-color:#000000;stop-opacity:1;"
         offset="0"
         id="stop4597" />
    </linearGradient>
  </defs>
  <sodipodi:namedview
     pagecolor="#ffffff"
     bordercolor="#666666"
     borderopacity="1"
     objecttolerance="10"
     gridtolerance="10"
     guidetolerance="10"
     inkscape:pageopacity="0"
     inkscape:pageshadow="2"
     inkscape:window-width="2400"
     inkscape:window-height="1271"
     id="namedview12"
     showgrid="false"
     inkscape:zoom="0.8"
     inkscape:cx="1071.4409"
     inkscape:cy="1350.213"
     inkscape:window-x="2391"
     inkscape:window-y="-9"
     inkscape:window-maximized="1"
     inkscape:current-layer="svg10" />
  <path
     style="fill:#093479"
     d="M 147.44927,4.0778702 C 30.918498,5.256875 4.613123,104.14842 4.613123,141.13864 L 4.2373031,1756.9575 C 4.2027321,1907.677 151.18087,1906.1361 151.18087,1906.1361 H 1287.1983 c 179.5842,0 167.8298,-148.4337 167.8298,-148.4337 l 0.7449,-513.1815 417.7095,-421.44086 c 0,0 113.0615,-119.29152 -14.1748,-226.00621 -128.5251,-107.79523 -224.1474,-7.08746 -224.1474,-7.08746 L 1454.283,770.86378 c 0,0 2.2378,-383.39068 0,-450.52226 -2.2377,-67.13158 -35.0613,-96.22408 -35.0613,-96.22408 0,0 -172.1608,-192.088102 -220.1251,-206.78775 C 1155.088,3.1574482 1108.7139,4.2097562 1108.7139,4.2097562 Z M 1119.368,112.22858 l 38.4172,0.0462 186.8507,188.67039 v 41.397 c -27.3134,0.53932 -134.0824,-1.18233 -224.8919,-0.36915 z m -964.27091,1.1208 c 37.36191,-0.18678 853.87881,0.37578 853.87881,0.37578 v 284.1889 c 0,0 11.189,46.99446 48.4844,46.99446 37.2952,0 287.1756,2.23517 287.1756,2.23517 v 431.87738 l -251.7451,251.74503 -83.9149,252.49 c 0,0 -11.1927,26.8544 8.9465,52.9612 20.1395,26.1066 56.6927,19.3902 56.6927,19.3899 l 246.8928,-82.7942 21.6315,-15.6649 v 392.3462 c 0,0 0.2801,45.1128 -44.0083,45.5045 -35.1255,0.3106 -1142.7286,0 -1142.7286,0 0,0 -43.83078,1.7381 -44.00792,-46.2495 -0.11249,-30.4748 0.18868,-1549.56512 0.18467,-1588.78124 v -0.36919 c 0,0 5.22265,-46.06303 42.51795,-46.24949 z m 912.06121,445.68307 c -266.97154,0.12408 -50.9959,0.24502 -797.19233,0.36916 l -9.69822,0.5605 c 0,0 -43.45089,7.76351 -43.44752,52.02493 0.002,50.85195 50.54154,58.26176 50.54154,58.26176 l 805.01193,-0.0783 c 0,0 40.3882,-6.71391 39.538,-55.19605 0,-53.00672 -44.7534,-55.94105 -44.7534,-55.94105 z m 674.5641,100.37759 c 11.2804,-0.26546 24.4845,3.77787 38.5227,16.72632 45.1275,39.34668 13.4234,69.37094 13.4234,69.37094 l -68.9953,71.98173 -79.4385,-79.44483 60.4176,-61.90784 c 0,0 14.535,-16.21929 36.0701,-16.72632 z m -902.81159,124.1386 -566.8944,2.23501 c 0,0 -55.19618,7.4e-4 -55.19618,53.70603 0,52.96708 52.21613,55.19623 52.21613,55.19623 l 575.09606,0.74506 c 0,0 51.46448,-4.46591 51.46448,-55.94129 0,-55.197 -56.68609,-55.94116 -56.68609,-55.94104 z m 727.25479,35.05479 77.9482,77.9484 -267.4099,267.40977 -77.5728,-77.5792 z m -722.22438,187.97157 -564.8374,0.9294 c 0,0 -62.20255,1.55 -62.28359,57.0621 2.0429,50.2427 60.97817,53.337 60.97817,53.337 l 567.63941,0.5535 c 0,0 49.10319,-5.9436 48.47793,-52.2094 -0.74593,-55.1971 -49.97452,-59.6726 -49.97452,-59.6726 z m 373.88578,157.3866 79.8142,79.8076 -27.9738,27.974 -119.7145,41.3969 39.5311,-120.0903 z m -944.31399,67.1294 c 0,0 -56.69278,2.2385 -56.69278,53.706 0,51.4677 57.43777,55.1963 57.43777,55.1963 h 554.95459 c 0,0 56.68625,3.7515 56.68625,-49.9745 0,-56.689 -62.65288,-58.9278 -62.65288,-58.9278 z m 465.44215,343.1166 c 0,0 -65.63846,4.4733 -66.38435,50.7195 -0.74588,46.2463 46.9945,58.1828 46.9945,58.1828 h 352.06349 c 0,0 50.7225,-7.4578 47.7392,-49.9745 0,-54.1248 -46.9153,-58.6641 -46.9153,-58.6641 z"
     id="path3734"
     inkscape:connector-curvature="0" />
</svg>
